{
	"train_dataset" : "germeval2018-binary",

	"test_dataset" : "germeval2018-binary",

	"all_text_features" :[["word2vec"]],

	"all_other_features" : [["hurtlex", "social"]],

	"all_layer_sizes" : [[100]],

	"all_model_types" : ["nnet"],

	"all_lambdas" : [0],

	"all_batch_sizes" : [32],

	"all_dropouts" : [[]],

	"all_recurrent_dropouts" : [0],

	"all_recurrent_layer_types" : ["GRU"],

	"all_recurrent_layer_sizes" : [[200]],

	"all_word2vec_sources" : ["fasttext-de"],

	"all_use_batch_normalization" : [false],

	"all_normalize_hashtags" : [false],

	"all_emojis" : [false],

	"all_attentions": [false]
}
