ps	yes	idiota
dmc	yes	buzzurro
an	no	bergolo
re	no	stupro
dmc	yes	pinzochero
ddp	yes	spione
cds	no	boriosità
cds	no	mistificatore
qas	no	contadino
ps	yes	piazzaiolo
cds	no	cricca
dmc	yes	male
pr	no	prostituta
asm	no	baluba
cds	no	carnefice
ps	yes	baluba
is	yes	boia
asf	no	conno
cds	no	maestra
ddp	yes	tattletale
ddp	yes	stupidezza
an	no	immondizia
cds	no	cosanostra
cds	no	iattanza
dmc	yes	cattivo tragico
ddp	yes	asino
ps	yes	distruttore
svp	no	rapacità
ddf	yes	ranocchio
asm	no	buggerare
cds	no	hauteur
re	no	violento
ddp	yes	dissennatezza
pa	yes	politicante
asf	no	castrone
qas	no	cataplasma
cds	no	petulanza
cds	no	mammalucco
svp	no	ozioso
dmc	yes	bestino
cds	no	contaballe
cds	no	merda
cds	no	ben pensante
an	no	pacioccone
cds	no	persecutore
qas	no	pispola
an	no	vampiro
dmc	yes	miserabile
pr	no	donnina
asf	no	pasticciano
an	no	fessaggine
is	yes	canaglia
cds	no	sfaticato
asm	no	ebete
cds	no	idiozia
or	no	grullo
re	no	mafia
cds	no	buonalana
dmc	yes	no-account
is	yes	morto di fame
is	yes	postulante
ps	yes	zotico
ddp	yes	bergolo
qas	no	pressapochismo
dmc	yes	ineducato
cds	no	lingua lunga
cds	no	bugia innocente
pr	no	vacca
dmc	yes	malavvezzo
cds	no	sconcio
cds	no	burbanza
cds	no	impudenza
ddp	yes	ciurmaglia
cds	no	sempliciotto
asm	no	sbattere
cds	no	rumourmonger
cds	no	reazionarie
dmc	yes	sprecone
dmc	yes	lingerer
re	no	congiungimento carnale abusivo
an	no	pesce
cds	no	acchiappamosche
is	yes	ristretto
asm	no	jacking off
is	yes	arpagone
cds	no	disordinato
svp	no	altura
re	no	vituperatore
ddp	yes	lupo
cds	no	inghippo
cds	no	incivile
ddp	yes	pisellone
qas	no	villanzone
svp	no	vanesio
svp	no	livoroso
dmc	yes	sudicio
dmc	yes	graveolente
pr	no	prostituzione di strada
dmc	yes	menzogna
an	no	birba
re	no	terroristi
cds	no	reazionari
cds	no	trucco scrittore
pr	no	amante
cds	no	supponente
cds	no	weisenheimer
ddp	yes	teppa
svp	no	gingillino
svp	no	bighellone
dmc	yes	immorale
cds	no	leccaculo
ddp	yes	tardità
ddp	yes	abbrutire
qas	no	cappello male
pr	no	cagna
asm	no	tardità
dmc	yes	marmotta
asf	no	buffone
ddf	yes	omuncolo
asm	no	imbecillaggine
ddp	yes	selvaggio
or	no	baggiano
ps	yes	jigaboo
om	no	molestatore di bambini
dmc	yes	taccagno
dmc	yes	pataccaro
an	no	pastricciano
re	no	masnadiere
dmc	yes	arcatore
svp	no	vanità
ddp	yes	muttonhead
ddp	yes	instupidirsi
an	no	miserabile
asm	no	citrullaggine
cds	no	massa
ddp	yes	marmaglia e bobtail
ddp	yes	non a conoscenza
ps	yes	unno
cds	no	panzanata
ddf	yes	sgradevole
ddp	yes	sicofante
ddp	yes	zotico
an	no	cagna
cds	no	prestito di denaro
svp	no	avido
ddp	yes	cangiante
dmc	yes	disonesto
qas	no	mangiaufo
asf	no	paffia
ddp	yes	pollastro
an	no	gaglioffo
an	no	asinità
dmc	yes	bulinatore
an	no	sweet
cds	no	balordo
svp	no	buono a nulla
asm	no	ocaggine
pr	no	slut
cds	no	arroganza
cds	no	ficcanaso
cds	no	apatico
an	no	persona incompetente
cds	no	ultraconservatore
qas	no	ciurmaglia
asf	no	cavolata
an	no	avara
dmc	yes	svaligiatore
svp	no	inutilità
an	no	sciocco
cds	no	panurgo
asm	no	lavoro mano
svp	no	vanagloria
cds	no	orgogliosità
qas	no	delirante
asm	no	rimbecillito
or	no	bonehead
svp	no	trencher
cds	no	arcatore
asm	no	credulone
cds	no	contafrottole
cds	no	malparlante
cds	no	scum borsa
re	no	calunniatore
svp	no	millanteria
pa	yes	cafoni
an	no	imbecillaggine
ps	yes	soft touch
ddp	yes	sempliciotto
an	no	ciarpame
an	no	coglionaggine
qas	no	impasticciare
an	no	bonehead
cds	no	cucciolo
cds	no	rifiuti solidi
re	no	violentata
cds	no	finagler
dmc	yes	scalzacane
asm	no	castrone
asf	no	tomfool
dmc	yes	bacchettone
dmc	yes	contraffatto
re	no	furbacchione
asf	no	wench
cds	no	vaiassa
cds	no	truckler
cds	no	fabricator
cds	no	pastricciano
is	yes	pidocchio
cds	no	benpensante
asf	no	ragazza
an	no	wuss
an	no	fetente
cds	no	branco
cds	no	egoistico
asm	no	mezzasega
dmc	yes	frodatore
is	yes	pidocchioso
pa	yes	becero
dmc	yes	fregarolo
cds	no	stupido
asm	no	truffare
an	no	vagabondo
qas	no	storiella
cds	no	membro di una banda
cds	no	brigante
re	no	masnadiero
an	no	pellaccia
dmc	yes	vagabondo
ddp	yes	parolaio
cds	no	parolaio
an	no	robaccia
dmc	yes	disgraziato
svp	no	cupido
asf	no	gonnella
asm	no	minchia
cds	no	ferraglia
or	no	culattone
svp	no	sussiego
an	no	accanirsi
asf	no	broccolo
re	no	violenza sessuale
cds	no	spacconaggine
an	no	antagonista
svp	no	girandolone
cds	no	zanni
cds	no	seguace
dmc	yes	chiappamosche
cds	no	sicumera
asf	no	sfarfallone
ddp	yes	coglionaggine
cds	no	guastamestieri
ddp	yes	coglioneria
asf	no	scioccone
an	no	marmaglia
ddp	yes	saltambanco
asf	no	insensatezza
asf	no	asinità
dmc	yes	parsimonioso
qas	no	ingarbugliare
ddp	yes	nonsenso
pr	no	puttanata
re	no	bricconcello
cds	no	figuro
ddp	yes	ignoranza
ddp	yes	bestiale
svp	no	saccenteria
pr	no	meretrice
re	no	furbone
pr	no	donna di strada
om	no	movimento omofilo
dmc	yes	flâneur
svp	no	avidità
qas	no	tormentare
cds	no	sbirro
cds	no	boiata
ddp	yes	deficiente
cds	no	meschino
ddp	yes	cretineria
an	no	pavido
pr	no	merdata
cds	no	poveraccio
dmc	yes	baciapile
dmc	yes	sgarbato
cds	no	lavati la grande
an	no	ragazzo in affitto
asf	no	ciarlone
cds	no	penman
an	no	tirato
svp	no	lesinatore
cds	no	agenti di polizia
ddf	yes	che non soddisfa
cds	no	bande di strada
cds	no	balla
pa	yes	bifolco
an	no	testa di legno
qas	no	pasticcione
is	yes	avara
an	no	illetterato
cds	no	masse
cds	no	scombiccheratore
re	no	birbone
ps	yes	scemo
cds	no	fellone
cds	no	banda di strada
ddp	yes	povero pesce
an	no	lupo
svp	no	boriosità
ddp	yes	cafone
cds	no	aguzzino
cds	no	usurai
ddp	yes	testa di cazzo
ddf	yes	ignobile
dmc	yes	riprovevole
ddf	yes	nano
asf	no	giuggiolone
an	no	moscherino
cds	no	scortichino
cds	no	usuraio
svp	no	vendicativo
ps	yes	cafone
ddp	yes	gonzo
asf	no	caduta ragazzo
ddp	yes	lunkhead
cds	no	antagonista
an	no	gancio
an	no	masnadiere
cds	no	capro espiatorio
svp	no	stizzoso
cds	no	pressapochismo
cds	no	sfarzosità
cds	no	furbone
qas	no	leccapiatti
cds	no	conformista
om	no	portatore-di-handicap
dmc	yes	pasticcione
ps	yes	barbaricum
asf	no	sprovveduto
re	no	detrattore
an	no	birbante
pr	no	donna di vita
cds	no	tipaccio
an	no	razziatore
an	no	giuggiolone
an	no	folla eterogenea
qas	no	sanguisuga
is	yes	spilorcio
qas	no	piazzaiolo
cds	no	casino
pr	no	prostituto
an	no	bufala internet
cds	no	oltracotanza
ddp	yes	ano
cds	no	delinquente
svp	no	parsimonia
cds	no	tracotante
asf	no	asineria
ddp	yes	pippione
asm	no	fare all'amore
is	yes	antagonista
cds	no	poliziotti
is	yes	sciagurato
asf	no	bambocciata
asf	no	fica
an	no	patsy
ddp	yes	sproposito
an	no	petecchia
qas	no	litighino
asf	no	asinata
is	yes	farabutto
svp	no	dondolone
cds	no	sermoneggiare
asm	no	schernire
ddp	yes	ritardato mentale
qas	no	cafona
asf	no	stupidata
an	no	bastardo
ddp	yes	babbuino
asf	no	cretineria
cds	no	barbarie
svp	no	lascivo
ddp	yes	mal educato
ps	yes	darkey
cds	no	criminale
cds	no	tomfool
asf	no	mamalucco
ddp	yes	ciarlatani
asf	no	idiota
ddp	yes	taleteller
asf	no	pacioccone
ddp	yes	bonaccione
ddp	yes	semplice
asf	no	bergolo
an	no	bambocciata
qas	no	mal educato
cds	no	didatta
ddp	yes	stupido
svp	no	ira
cds	no	ipersessualità
cds	no	storia
ps	yes	capro espiatorio
svp	no	intolleranza
is	yes	miserabile
ps	yes	pisellone
is	yes	figuro
an	no	pecoreccio
ddf	yes	moscerino
cds	no	nodo
pr	no	buncombe
qas	no	scroccone
re	no	birba
ddp	yes	broccolo
or	no	cretino
asf	no	ciciotta
asf	no	citrullaggine
svp	no	arrogante
dmc	yes	camorrista
cds	no	codardia
dmc	yes	tanfo
an	no	pippione
re	no	stupri
svp	no	pietista
ddp	yes	marmaglia
qas	no	guazzabuglione
cds	no	cacasotto
svp	no	sanguigno
rci	yes	terronia
cds	no	pelandrone
an	no	migragnoso
cds	no	sventurato
cds	no	cacciaballe
cds	no	ninfomania
asf	no	topa
svp	no	slacker
or	no	ottuso
cds	no	birbante
cds	no	saputo
an	no	ribaldo
svp	no	rancoroso
dmc	yes	bighellone
pr	no	puttana crepa
re	no	denigratore
asf	no	imbecillità
ddp	yes	blockhead
ddp	yes	sparlatore
asf	no	gnocco
cds	no	scarto
ddp	yes	zanni
cds	no	asinata
ddp	yes	frescone
an	no	fesso
qas	no	trouble maker
dmc	yes	retrogrado
an	no	trivialità
ddp	yes	pudden testa
dmc	yes	micragnoso
dmc	yes	puzzo
dmc	yes	carogna
cds	no	arteriosclerotico
ps	yes	merlo
cds	no	vanità
asf	no	bischero
ddp	yes	scioccone
ddf	yes	deludente
ddp	yes	chiacchierino
om	no	andicappato
ddp	yes	fumbler
pa	yes	maleducato
cds	no	babbuino
ddp	yes	zooerasty
dmc	yes	cafona
ps	yes	ottuso
svp	no	bigotto
dmc	yes	avaro
cds	no	rimbecillito
dmc	yes	brigante
cds	no	volpe
cds	no	egoismo
svp	no	inanità
an	no	persona sciatta
an	no	mammalucco
asf	no	gonzo
cds	no	vanesio
asm	no	shtup
an	no	meretrice
cds	no	raccogliticcio
dmc	yes	bugiardo
ddp	yes	bischero
asm	no	bischero
re	no	organizzazione terroristica
or	no	finocchio
an	no	porcaccione
asf	no	salame
re	no	barabba
dmc	yes	scortese
svp	no	acchiappamosche
qas	no	cogliere
cds	no	jacking off
cds	no	egotismo
ddp	yes	balordo
cds	no	saccente
an	no	diddlyshit
ddf	yes	deprecabile
cds	no	bellyacher
asf	no	twat
ddp	yes	scemenza
ddp	yes	grullo
is	yes	miserevole
qas	no	povero
cds	no	persona stupida
cds	no	ciarlatano
qas	no	popoli barbari
ddp	yes	insensatezza
an	no	folderol
ddp	yes	insensato
om	no	frocio
cds	no	gazzetta
re	no	il cattivo
asf	no	mentecatto
asf	no	nicchio
ps	yes	sprovveduto
cds	no	dogmatismo
cds	no	pignolo
pa	yes	barbaro
cds	no	gherminella
pr	no	floozie
pr	no	sessuali commerciali
ddp	yes	it
asf	no	testa di cazzo
asf	no	pastricciano
cds	no	mezzano
ddp	yes	lingua lunga
cds	no	dirottatore
cds	no	astuto
dmc	yes	bugia
svp	no	pinzochero
ddp	yes	svaporato
cds	no	uccellaccio
ddp	yes	popoli barbari
asf	no	capro espiatorio
cds	no	boia
dmc	yes	pelandrone
an	no	feccia
re	no	brutalizzazione
dmc	yes	dissipato
cds	no	funzionario
asf	no	ebete
an	no	cretinata
cds	no	narcisistico
pa	yes	incivile
ddp	yes	medico ciarlatano
cds	no	sfrontataggine
qas	no	acciarpare
cds	no	cafone
dmc	yes	tal dei tali
cds	no	malalingua
cds	no	arditezza
asf	no	bamboccio
rci	yes	cafone
dmc	yes	svogliato
asm	no	credulousness
an	no	testa di cazzo
svp	no	sfacendato
asm	no	coglione
cds	no	sornione
asm	no	stupidata
asf	no	bestia
svp	no	pigrone
pr	no	donna della strada
cds	no	truffaldino
cds	no	pacione
svp	no	lazzerone
ps	yes	sempliciotto
an	no	idiota
pa	yes	contadino
cds	no	pappalardo
dmc	yes	scioperato
ddp	yes	tomfool
ps	yes	fessacchiotto
asm	no	ciuco
cds	no	maestrina
an	no	puzzone
ddp	yes	mormoratore
re	no	boia
an	no	bonaccione
ps	yes	ruiner
asf	no	stolido
an	no	prostituto
cds	no	pippa
is	yes	omiciattolo
dmc	yes	sfaccendato
asm	no	balordo
cds	no	esibizionista
or	no	arteriosclerotico
re	no	brigante
ddp	yes	assurdità
cds	no	chiacchierone
qas	no	peso-morto
qas	no	barbaricum
asm	no	idiozia
asm	no	stupidezza
svp	no	supponenza
cds	no	cultura fascista
dmc	yes	raggiratore
an	no	troia
qas	no	tagalong
asf	no	credulone
qas	no	abborracciare
svp	no	intollerante
asf	no	imbecille
ddf	yes	spregevole
cds	no	whiner
qas	no	sgarbato
ps	yes	tontolone
dmc	yes	barbarie
cds	no	street gang
ddp	yes	minchione
asf	no	frescone
cds	no	fanatismo
qas	no	scroccatore
cds	no	stratagemma
ps	yes	sguaiato
cds	no	mettibocca
asm	no	scopata
an	no	gretto
an	no	sudicione
ddp	yes	ciarpame
cds	no	codino
qas	no	bugia
is	yes	petecchia
cds	no	ruffiano
cds	no	nosy-parker
dmc	yes	depravato
cds	no	intollerante
cds	no	cattivo tragico
cds	no	maleducato
an	no	hoax
svp	no	famelico
an	no	rozzezza
cds	no	nequitia
pr	no	prostituzione maschile
cds	no	vessatorio
qas	no	ciabattone
cds	no	fissato
an	no	baggianata
cds	no	bravaccio
an	no	plebe
dmc	yes	farabutto
svp	no	slackers
ddp	yes	plebaglia
dmc	yes	sfaticato
ddp	yes	bambocciata
asm	no	stupido
is	yes	di mentalità ristretta
ddp	yes	pacione
an	no	ignorantemente
pr	no	scorta maschile
asm	no	cretineria
asf	no	cretinata
or	no	frocio
an	no	baldracca
cds	no	diavoleria
qas	no	maramaglia
qas	no	marmittone
asf	no	sticchio
an	no	zooerasty
cds	no	beota
ddp	yes	immondizia
cds	no	immondizia
cds	no	sofistico
asm	no	uccellaccio
cds	no	grassatore
an	no	barabba
an	no	testa di martello
cds	no	vaiasse
ddp	yes	bue
an	no	prostituta
asm	no	buffone
ddp	yes	efferatezza
asm	no	scioccone
ddp	yes	patsy
dmc	yes	mal educato
dmc	yes	tignoso
svp	no	micragnoso
cds	no	impostore
cds	no	borbottone
an	no	serpente
qas	no	fare un pasticcio di
ddp	yes	mala lingua
dmc	yes	il cattivo
cds	no	giuggiolone
dmc	yes	fingitore
cds	no	trombone
cds	no	guardia
cds	no	selvaggio
cds	no	casinaro
ddp	yes	imbonitore
cds	no	pillock
svp	no	goof-off
cds	no	sbarbatello
cds	no	bastarda
qas	no	incapace
asm	no	corbellare
ddp	yes	villanzone
dmc	yes	infame
cds	no	buono a nulla
is	yes	masnadiero
dmc	yes	arcadore
qas	no	incivile
is	yes	sventurato
cds	no	montato la testa
qas	no	zulù
svp	no	mangiamoccoli
asf	no	uccellaccio
asm	no	pisello
an	no	bietolone
svp	no	presuntuoso
is	yes	poco generoso
an	no	farabutto
dmc	yes	malfattore
dmc	yes	pestilenza
cds	no	malizia
asm	no	segaiolo
asm	no	fesso
ddp	yes	baluba
dmc	yes	bandito
ddp	yes	genia
an	no	muttonhead
cds	no	bidonista
cds	no	cagliostro
is	yes	povero
cds	no	babbeo
dmc	yes	delinquente
asm	no	uccello
dmc	yes	tristo
cds	no	chawbacon
asf	no	patata
svp	no	tronfiezza
qas	no	insano
cds	no	mal educato
an	no	infingardo
asf	no	bambinone
cds	no	bacchettonaggine
cds	no	fuorilegge
asm	no	castronaggine
ddp	yes	rincretinire
cds	no	mafia siciliana
cds	no	demagogo
cds	no	scansafatiche
pr	no	bagascia
cds	no	stato di confusione
or	no	twat
svp	no	gretto
ddp	yes	bifolco
svp	no	diluviatore
asf	no	mona
svp	no	tignoso
cds	no	screanzato
qas	no	marrano
om	no	disabile
cds	no	cialtroneria
ddp	yes	malparlante
cds	no	prosseneta
pr	no	hellcat
cds	no	schiera
cds	no	cencioso
cds	no	disordine
an	no	furfante
re	no	mascalzone
cds	no	sbarazzino
is	yes	furfante
asf	no	tonto
asm	no	gonzo
asf	no	cunno
cds	no	sdegnosità
dmc	yes	dallier
asm	no	mentecatto
cds	no	capopopolo
dmc	yes	calamitoso
cds	no	folletto
an	no	zimbello
ddp	yes	mentecatto
cds	no	marmaglia
an	no	scellerato
ddp	yes	citrullo
cds	no	amore di sé
an	no	scemenza
dmc	yes	scellerato
or	no	bambinone
svp	no	flâneur
dmc	yes	misirizzi
re	no	rosso
cds	no	do-nothing
asf	no	stupido
ddp	yes	merda
asm	no	dileggiare
dmc	yes	sconvenevole
ps	yes	bischero
re	no	maffia
asm	no	allocco
cds	no	menzogna
dmc	yes	tanghero
cds	no	pretensione
or	no	lunkhead
re	no	mafiosa
cds	no	stronza
cds	no	picchiapetto
an	no	codswallop
cds	no	mamalucco
svp	no	accidioso
svp	no	chiappamosche
asm	no	tonto
cds	no	gingillone
svp	no	schivafatiche
an	no	ferocia
qas	no	sciolist
ddp	yes	folderol
an	no	diddley
cds	no	stolido
qas	no	mettimale
ddp	yes	rimbambito
ddp	yes	ignorante
ddp	yes	abbaiatore
pa	yes	barbarie
an	no	affarista
cds	no	canaglia
cds	no	patito
re	no	terrorista
ps	yes	caduta ragazzo
asm	no	asino
svp	no	trencherman
ddp	yes	bambinesco
cds	no	pollo
cds	no	vaunter
cds	no	pettegola
cds	no	mala lingua
cds	no	enigma
qas	no	zoticone
re	no	raper
cds	no	esaltato
cds	no	iattazione
cds	no	maniaco
cds	no	pappa
cds	no	porcaccione
ddp	yes	impiastratore
qas	no	immondizia
asm	no	dileggiatore
dmc	yes	sbarazzino
dmc	yes	ipocrisia
ddp	yes	semplicione
qas	no	impiastratore
re	no	furfante
dmc	yes	antagonista
asf	no	figa
an	no	maramaglia
cds	no	tracotanza
re	no	cattivo tragico
an	no	knucklehead
cds	no	abbindolatore
an	no	castronaggine
cds	no	gazzettino
cds	no	rimbambito
cds	no	vigliacco
dmc	yes	slacker
is	yes	tirchio
pr	no	sgualdrina
cds	no	sapientone
is	yes	cattivo tragico
re	no	cattivo
ddp	yes	ferocia
svp	no	arrabbiato
re	no	stupratore seriale
dmc	yes	dissimulazione
an	no	parassita
qas	no	scalzacane
ps	yes	zimbello
qas	no	fumbler
cds	no	pellaccia
dmc	yes	contraffazione
dmc	yes	moralmente inaccettabile
asm	no	beffeggiatore
asf	no	knucklehead
an	no	deficiente
ddp	yes	marmittone
dmc	yes	bigotto
cds	no	bigottismo
cds	no	piantagrane
re	no	data di stupro
or	no	babbuino
ddp	yes	contadino
ps	yes	pippione
cds	no	sniveller
an	no	persona cattiva
cds	no	che si dà un sacco di arie
cds	no	road agent
dmc	yes	nanerottolo
an	no	rustichezza
ps	yes	ritardare
ps	yes	jerry
asm	no	sprovveduto
svp	no	ghiotto
asm	no	pirla
ddp	yes	tardo
cds	no	crimen lenocinii
re	no	delinquente minorenne
ddp	yes	merlo
ddp	yes	stupe
cds	no	fifone
ddp	yes	sprovveduto
re	no	libeler
asf	no	grullaggine
dmc	yes	fetidume
dmc	yes	briccone
ps	yes	eversore
re	no	libellista
an	no	asinesco
cds	no	birichino
dmc	yes	tanfata
cds	no	contadino
ddp	yes	bambinone
svp	no	arpagone
an	no	pollo
cds	no	persona pettegola
cds	no	contastorie
cds	no	ghenga
svp	no	pitoccheria
svp	no	astioso
cds	no	popolo
an	no	malvagio
dmc	yes	tappo
ddp	yes	bastardo
cds	no	fanatico
dmc	yes	insincero
an	no	rapa
svp	no	brindellone
dmc	yes	tipaccio
cds	no	burlone
ddp	yes	giuggiolone
cds	no	uomo-d'ordine
cds	no	venalità
cds	no	taccolare
cds	no	giullare
an	no	tuonare
dmc	yes	gabbacompagno
cds	no	procurare
dmc	yes	pidocchioso
or	no	testone
qas	no	abbattimento
cds	no	sciocchezza
cds	no	stronzo
dmc	yes	ozioso
asf	no	zimbello
ddp	yes	canaglia
dmc	yes	sconcio
cds	no	vanaglorioso
qas	no	schiappa
cds	no	sfruttamento della prostituzione
svp	no	maligno
dmc	yes	battifiacca
svp	no	marmotta
cds	no	buona lana
asf	no	semplice
svp	no	vanitoso
an	no	tomfool
cds	no	comare
ddf	yes	tappo
dmc	yes	gabbamondo
an	no	merlo
or	no	testa di cazzo
an	no	pisellone
cds	no	manigoldo
svp	no	bacchettone
svp	no	scontroso
cds	no	barbaricum
qas	no	infastidire
or	no	pudden testa
dmc	yes	scaldaseggiole
asf	no	stoltezza
cds	no	baggiano
asf	no	codswallop
svp	no	lubrico
asm	no	corbellatore
ddp	yes	pettegola
cds	no	cialtrone
dmc	yes	girovago
cds	no	sfortunato
an	no	nanus
dmc	yes	appestante
dmc	yes	ribaldo
asm	no	tontolone
asf	no	it
ps	yes	ritardato mentale
an	no	stronza
pa	yes	pedante
svp	no	bellicoso
asm	no	deficiente
rci	yes	marrano
cds	no	favola
cds	no	rebus
an	no	rudezza
an	no	diddly-squat
ddp	yes	dulcamara
qas	no	pittima
ps	yes	babbeo
ps	yes	baccalà
cds	no	scaldaseggiole
dmc	yes	dirty dog
ps	yes	piombone
qas	no	porcheria
re	no	bandito
cds	no	ninfomane
ddp	yes	castroneria
cds	no	zulù
cds	no	buzzurro
is	yes	cattivo
cds	no	zimbello
an	no	depredatore
or	no	balordo
cds	no	taleteller
asf	no	spriggan
cds	no	prepotenza
ddp	yes	rimbecillirsi
pr	no	donnina allegra
or	no	svaporato
om	no	sdolcinato
asm	no	schernitore
an	no	delinquente
rci	yes	burino
cds	no	persona sciatta
svp	no	svogliato
dmc	yes	chietino
pr	no	puttana
cds	no	citrullaggine
qas	no	conformista
cds	no	cretineria
an	no	porco
re	no	irruento
cds	no	farabutto
cds	no	gnaulone
dmc	yes	giuntatore
cds	no	idiota
dmc	yes	dio trickster
cds	no	semente del fieno
an	no	sciattone
an	no	balordamente
cds	no	Ὕβρις
cds	no	loansharking
ddp	yes	saltimbanco
ddp	yes	gentaglia
dmc	yes	scansafatica
cds	no	bigotteria
ddp	yes	idiozia
is	yes	scellerato
cds	no	stupe
an	no	gonzo
cds	no	tormentatore
asm	no	citrullo
an	no	fesseria
pa	yes	cafona
ps	yes	gnocco
ddp	yes	pettegolo
asf	no	scemo
ddp	yes	ciabattone
cds	no	oscurantista
asf	no	paolino
cds	no	rubacchiatore
pr	no	megera
dmc	yes	barbaricum
qas	no	falso
cds	no	sfacciataggine
asf	no	fregna
ps	yes	gocciolone
ps	yes	burino
cds	no	poliziotta
cds	no	merlotto
an	no	esosità
an	no	uccellaccio
ddp	yes	cicala
cds	no	parruccone
ddp	yes	ciurma
dmc	yes	disinibito
asf	no	blockhead
cds	no	turlupinatore
cds	no	personalistico
ddf	yes	nanerottolo
asf	no	fregnone
ddp	yes	baccalà
cds	no	pietista
dmc	yes	malavita
cds	no	espediente
cds	no	gang
svp	no	spavaldo
cds	no	guidapopolo
asm	no	corbelleria
cds	no	nanerottolo
cds	no	carabiniere
ps	yes	villanzone
an	no	mollusco
svp	no	lavativo
ps	yes	grullo
dmc	yes	schivafatiche
is	yes	disgraziato
cds	no	cantimbanco
dmc	yes	simulatore
an	no	efferatezza
re	no	ribaldo
cds	no	scrawler
an	no	semplice
dmc	yes	pseud
asf	no	gnocca
cds	no	indisponente
cds	no	stuolo
dmc	yes	guazzabuglione
qas	no	dilettantismo
or	no	pignolo
cds	no	brocco
dmc	yes	falso
cds	no	minchione
qas	no	mestatore
is	yes	masnadiere
ddp	yes	scimunitaggine
cds	no	banderuola
an	no	incapace
cds	no	gonfianuvoli
ddp	yes	bonehead
dmc	yes	dilly-dallier
cds	no	baciapile
an	no	moscerino
ddp	yes	instupidire
ddp	yes	gocciolone
cds	no	wise guy
cds	no	camorrista
ps	yes	livido
cds	no	alterezza
ddp	yes	marrano
asf	no	pincia
cds	no	sparlatore
cds	no	mafiosi
dmc	yes	mariolo
ddp	yes	traditore
cds	no	botcher
svp	no	no-account
qas	no	burino
cds	no	svaligiatore
cds	no	pudden testa
ddp	yes	minchioneria
asm	no	minchionaggine
cds	no	pispola
cds	no	piagnone
cds	no	gonzo
dmc	yes	ingannatore
dmc	yes	bidonista
an	no	serpente tra l'erba
cds	no	superficialità
svp	no	spocchia
an	no	polenta
asf	no	doofus
svp	no	scioperato
asm	no	canzonatore
asm	no	stupidaggine
asf	no	merlotto
cds	no	retrivo
dmc	yes	birbone
cds	no	traffichino
ddp	yes	ciarlataneria
re	no	diffamazione
re	no	ricattato
cds	no	bischero
asm	no	deridere
an	no	cretineria
svp	no	vagabondo
ddp	yes	cantimbanco
pa	yes	cafone
ddp	yes	stoltezza
dmc	yes	magliaro
dmc	yes	indecoroso
ddp	yes	sguaiato
dmc	yes	contadino
cds	no	pischello
cds	no	smanierato
or	no	severo
is	yes	fellone
cds	no	ingenuo
qas	no	mondezza
or	no	pincia
asm	no	irridere
ddp	yes	buco del culo
dmc	yes	tirato
cds	no	nostalgico
asm	no	paolino
dmc	yes	empio
om	no	poove
qas	no	buzzurro
cds	no	coniglio
asm	no	sbeffeggiare
svp	no	battifiacca
cds	no	mother fucker
ddp	yes	allocco
dmc	yes	dilapidatore
dmc	yes	libertinismo
an	no	panurgo
an	no	falena
cds	no	muffosità
an	no	pidocchio
svp	no	divoratore
qas	no	dilettante
dmc	yes	fabricator
or	no	idiota
svp	no	crapulone
ddp	yes	senza i requisiti necessari
svp	no	avaro
dmc	yes	di idee ristrette
ddp	yes	feccia
cds	no	bergolo
cds	no	grandigia
ddp	yes	testone
cds	no	gentaglia
asf	no	patonza
ddp	yes	sgarbato
cds	no	spifferone
or	no	merlotto
cds	no	vigliaccata
an	no	ciurmaglia
asm	no	giobbare
cds	no	pilferer
re	no	gancio
asf	no	saphead
or	no	bietolone
qas	no	scarto
cds	no	lenocinio
an	no	sporcaccione
asf	no	minchioneria
an	no	imbecillità
re	no	terrorismo
an	no	vamp
cds	no	dispotismo
an	no	speculatore
svp	no	boria
cds	no	molestatore
asm	no	insensatezza
ddp	yes	pacioccone
re	no	scellerato
cds	no	enimma
or	no	meticoloso
ps	yes	fesso
asm	no	fanciullone
ddp	yes	cicalone
cds	no	tattletale
svp	no	minginess
cds	no	bastardo
cds	no	bestia
dmc	yes	gaglioffo
ddp	yes	coglione
cds	no	grifter
or	no	omosessuale
cds	no	tumidezza
rci	yes	popoli barbari
cds	no	gangsterismo
dmc	yes	puzzoso
ddp	yes	cafona
is	yes	delinquente
dmc	yes	intollerante
an	no	sempliciotto
qas	no	stoccatore
ddf	yes	insoddisfacente
asm	no	saphead
cds	no	delirio di onnipotenza
ddp	yes	fesseria
dmc	yes	fariseo
or	no	babbeo
svp	no	protervia
cds	no	reazione
or	no	giuggiolone
qas	no	confusionista
cds	no	zoticone
cds	no	imbrattacarte
cds	no	bonaccione
asm	no	dabbenaggine
pr	no	scrofa
ddp	yes	gazzettino
cds	no	birba
or	no	patonza
cds	no	becero
ddp	yes	incapace
cds	no	cogliere
asf	no	corbelleria
dmc	yes	picchiapetto
an	no	cuckold
re	no	data-stupro
asf	no	baluba
cds	no	il cattivo
qas	no	parassita
cds	no	scammer
cds	no	veloce un
asf	no	passera
ps	yes	ritardato
asf	no	mongoloide
an	no	sdolcinato
om	no	manutenzione
svp	no	muffosità
qas	no	barbone
om	no	omofilo
asm	no	pippione
asf	no	rapa
ps	yes	mongoloidi
qas	no	cialtrone
or	no	poof
pa	yes	zappaterra
asf	no	stupidaggine
cds	no	poliziotto
ddp	yes	maramaglia
svp	no	pidocchio
qas	no	moocher
cds	no	strangolatore
an	no	fanciullone
cds	no	genia
an	no	villain
pr	no	stronza
an	no	scemo
an	no	pasticciano
cds	no	bubbola
an	no	malavita
pr	no	ragazzo in affitto
ddf	yes	sgradevole a vedersi
svp	no	sdegnosità
ddp	yes	salame
dmc	yes	hobos
cds	no	mangiamoccoli
cds	no	soft touch
an	no	grullaggine
cds	no	sdolcinato
dmc	yes	falsità
cds	no	sgobbone
cds	no	baccellone
an	no	babbeo
ddp	yes	puerile
ps	yes	abbattitore
cds	no	demagogico
an	no	spazzatura
svp	no	indolente
ddp	yes	ciocco
cds	no	puzzone
ps	yes	changeling
asm	no	copulare
asm	no	fregnone
cds	no	matamoro
an	no	broccolo
svp	no	scaldaseggiole
qas	no	garbuglione
dmc	yes	malacreanza
qas	no	patetico
rci	yes	ignorante
ddp	yes	guastamestieri
ddp	yes	gazzetta
is	yes	cencioso
cds	no	mormoratore
dmc	yes	cialtrone
cds	no	beghino
cds	no	recluta
cds	no	birbantello
dmc	yes	mangiamoccoli
an	no	martino
or	no	sofistico
ddp	yes	codswallop
ps	yes	fanciullone
asm	no	minchionatore
is	yes	paltoniere
ddp	yes	senza senso
ddp	yes	coatto
an	no	allocco
an	no	brigante
an	no	somaro
cds	no	sbarbino
asm	no	fottere
cds	no	scagnozzo
cds	no	cretino
cds	no	imbroglione
cds	no	ritrovato
cds	no	schiappa
an	no	donna fatale
cds	no	villano
svp	no	amor proprio
is	yes	avaro
cds	no	teppa
an	no	vile
re	no	svaligiatore
cds	no	artificio
asm	no	capro espiatorio
pr	no	mignotta
asf	no	sciocco
cds	no	persona debole
cds	no	rumormonger
or	no	mona
dmc	yes	villanzone
an	no	tartaruga
cds	no	lazzerone
asm	no	pezzo di culo
ddp	yes	stupidaggine
cds	no	fannullone
cds	no	bugiardo
qas	no	ignorante
cds	no	guerra per bande
ddp	yes	ritardare
dmc	yes	fortore
svp	no	gourmand
dmc	yes	gabbacristiani
an	no	barilotto
dmc	yes	disastroso
cds	no	sfrontatezza
an	no	asineria
re	no	grassatore
or	no	bonaccione
an	no	non so nulla
svp	no	pigro
ddp	yes	sciocchezza
cds	no	fascismo
cds	no	wisenheimer
qas	no	impiastro
rci	yes	contadino
dmc	yes	arrogante
dmc	yes	sfacendato
ddf	yes	nana
or	no	somaro
ddp	yes	credulone
cds	no	maldicente
cds	no	segugio
cds	no	fesso
ddp	yes	mother fucker
cds	no	bugia
pr	no	peripatetica
cds	no	mollaccione
cds	no	furfantaggine
ddp	yes	guazzabuglione
an	no	bufala
or	no	stupido
cds	no	bricconcello
ddp	yes	musone
asf	no	rimbecillito
dmc	yes	screanzato
cds	no	baggianata
an	no	genia
asf	no	deficiente
asm	no	scopare
dmc	yes	ineducazione
dmc	yes	birbante
ps	yes	paolino
an	no	raunch
cds	no	rozzo
or	no	credulone
ps	yes	ignorante
svp	no	vitellone
svp	no	mollusco
cds	no	pelagatti
asf	no	baccellone
ddp	yes	asinata
asf	no	testa di merda
ddp	yes	frode medica
om	no	pederasta
cds	no	maramaglia
qas	no	tirapiedi
dmc	yes	deprecabile
dmc	yes	botcher
cds	no	trafficante
qas	no	bubbola
asf	no	ottuso
svp	no	migragnoso
cds	no	imboscato
cds	no	pinzochero
dmc	yes	olezzante
asf	no	vagina
cds	no	saphead
an	no	pescecane
cds	no	escamotage
dmc	yes	birbantello
cds	no	slacker
ddp	yes	barbaro
ddp	yes	persona pettegola
dmc	yes	lavativo
is	yes	micragnoso
ddp	yes	stolido
asm	no	avvitamento
cds	no	bambinone
svp	no	desideroso
qas	no	casinista
asf	no	baggianata
cds	no	insensato
asm	no	soft touch
is	yes	tipaccio
or	no	paffia
ddp	yes	zoticone
cds	no	mal parlante
cds	no	pigrone
svp	no	pidocchieria
an	no	persona debole
dmc	yes	corrotto
dmc	yes	manigoldo
pa	yes	mal educato
dmc	yes	scellerataggine
re	no	pellaccia
cds	no	agente
svp	no	sparagnino
asf	no	insensato
ddp	yes	arteriosclerotico
cds	no	gabbatore
pa	yes	rozzezza
dmc	yes	semente del fieno
asf	no	zuccone
or	no	potta
ps	yes	balordo
cds	no	ciurma
cds	no	albagia
ddp	yes	ciancione
rci	yes	barbaro
an	no	cretino
cds	no	spocchia
re	no	stupratori
is	yes	malandrino
cds	no	codswallop
cds	no	furbo
re	no	scatenato
or	no	pastricciano
cds	no	bricconaggine
an	no	nano
dmc	yes	mistificazione
svp	no	tirchieria
asf	no	testa di legno
ddp	yes	istupidire
cds	no	scrittorucolo
an	no	pazzia
or	no	diverso
ddp	yes	folla eterogenea
or	no	baccellone
ddp	yes	sciocco
an	no	galeotto
ps	yes	mammalucco
dmc	yes	scorretto
ddp	yes	ritardato
rci	yes	barbari
an	no	bruto
an	no	lordura
ps	yes	deficiente
svp	no	alterezza
ddp	yes	gracchiatore
dmc	yes	git
cds	no	frignone
cds	no	codardo
re	no	terroristica
an	no	caduta ragazzo
cds	no	masnadiere
dmc	yes	olezzo
ddp	yes	fanciullesco
ddp	yes	bestialità
ddp	yes	cantambanco
qas	no	noioso
an	no	buono a nulla
cds	no	accorgimento
dmc	yes	imboscato
dmc	yes	di mentalità ristretta
cds	no	figlio di puttana
qas	no	canaglia
an	no	peripatetica
om	no	gay
asf	no	pacione
asm	no	zimbello
cds	no	ostentatore
cds	no	fanfarone
ddp	yes	stravaganza
svp	no	strafottenza
ddp	yes	strafalcione
an	no	nanerottolo
cds	no	impiastratore
qas	no	piantagrane
cds	no	burino
cds	no	fawner
an	no	accanimento
ddp	yes	imbecillità
an	no	stupido
pr	no	fornicatrice
svp	no	ghiottone
dmc	yes	campagnolo
rci	yes	zappaterra
is	yes	pezzente
cds	no	ranocchio
cds	no	cascame
cds	no	saccenteria
is	yes	straccione
asm	no	ingenuo
om	no	finocchio
dmc	yes	fanatismo
asf	no	bonehead
cds	no	invenzione
ddf	yes	pulcioso
dmc	yes	goof-off
ps	yes	citrullo
qas	no	barbarie
cds	no	zotico
ps	yes	villano
cds	no	pasticcione
ps	yes	salame
ddp	yes	brutale
dmc	yes	puzza
dmc	yes	girandolone
an	no	teppa
cds	no	supponenza
cds	no	penale
dmc	yes	scum borsa
pr	no	battona
dmc	yes	omuncolo
ddp	yes	plebe
cds	no	parabolone
dmc	yes	povero diavolo
cds	no	malvivente
cds	no	cosa nostra
qas	no	aggrovigliare
an	no	prostituzione maschile
cds	no	sfaccendato
or	no	beota
asf	no	pesce
ps	yes	patsy
cds	no	groveler
asm	no	caduta ragazzo
pa	yes	zulù
ddp	yes	scempiataggine
an	no	stupidità
asf	no	testone
cds	no	trucco letterario
qas	no	rifiuto
cds	no	indolente
an	no	prostituzione omosessuale maschile
cds	no	classe inferiore
asf	no	balordaggine
ddp	yes	testa di merda
dmc	yes	disordinato
cds	no	guazzabuglione
asm	no	scimmiottare
qas	no	maleducato
svp	no	lazzarone
asm	no	grullaggine
cds	no	sciattone
an	no	asinescamente
pr	no	zambracca
cds	no	ribalderia
dmc	yes	crudo
ddp	yes	babbeo
ps	yes	ingenuo
cds	no	sfacciatezza
svp	no	apatico
dmc	yes	slackers
cds	no	lavativo
an	no	stoltezza
cds	no	trucco
pr	no	mantenuta
dmc	yes	buonalana
an	no	codardo
ps	yes	incivile
dmc	yes	scansafatiche
re	no	chiassoso
dmc	yes	fanatico
pr	no	prostituzione femminile
ddp	yes	pasticcione
cds	no	spione
an	no	doodly-squat
cds	no	plebe
an	no	sparagnino
re	no	pervertitore
dmc	yes	grassatore
svp	no	ansioso
dmc	yes	sgarbatezza
cds	no	bumbler
svp	no	fuggifatica
re	no	malandrino
dmc	yes	ammorbante
cds	no	leccone
cds	no	frodatore
asf	no	pappalardo
svp	no	impulsivo
or	no	ciarlone
cds	no	ciarlatani
cds	no	ammazzasette
cds	no	topolino
svp	no	avvilirsi
dmc	yes	nauseabondo
or	no	invertito
dmc	yes	traditore
cds	no	presupponenza
dmc	yes	trickster
re	no	maldicente
dmc	yes	disertore
dmc	yes	treasonist
an	no	pudge
cds	no	congrega
asf	no	babbuino
asf	no	gocciolone
rci	yes	piazzaiolo
or	no	cunno
cds	no	fascismi
cds	no	corruttibile
ddp	yes	ingenuo
cds	no	bighellone
qas	no	pizza
qas	no	torturare
asm	no	rotolare nel fieno
an	no	ciocco
asm	no	sciocco
ddp	yes	asinesco
asf	no	bue
asm	no	insensato
an	no	grossolanità
cds	no	cafona
qas	no	ciurma
cds	no	demagog
rci	yes	mal educato
cds	no	meticoloso
ddp	yes	ridicolaggine
cds	no	rottami
cds	no	accidioso
is	yes	avarizia
ddp	yes	eresia
cds	no	paraninfo
qas	no	palla
svp	no	scansafatica
cds	no	lavoro mano
cds	no	leccapiedi
ddp	yes	cangianti
an	no	incompetente
ps	yes	negro
ddp	yes	credulo
cds	no	ceto inferiore
asf	no	baccelletto
cds	no	vajassa
cds	no	smargiasso
cds	no	palazzinaro
dmc	yes	pietista
cds	no	galeotto
ddp	yes	adolescenziale
ddp	yes	burbero
an	no	inesorabilità
ddp	yes	cianciatore
asf	no	orifizio vaginale
an	no	coniglio
cds	no	folla disordinata
ps	yes	zulù
svp	no	voglioso
cds	no	merlo
dmc	yes	birba
cds	no	rifiuto
cds	no	pisellone
asm	no	defraudare
dmc	yes	inopportuno
cds	no	combutta
dmc	yes	barabba
qas	no	zotico
cds	no	sfringuellare
asm	no	fessaggine
dmc	yes	rapinatore
qas	no	gentaglia
cds	no	mafioso
asm	no	doofus
or	no	bergolo
cds	no	satanasso
ddp	yes	rumormonger
re	no	gaglioffo
dmc	yes	ladruncolo
dmc	yes	truccone
cds	no	inganno
asm	no	mamalucco
pa	yes	ignorante
ps	yes	mulatto
dmc	yes	fumbler
om	no	mollaccione
or	no	testa di legno
cds	no	blaterare
cds	no	sfigato
asm	no	baccelletto
dmc	yes	catastrofico
cds	no	strozzinaggio
cds	no	sgarbato
dmc	yes	fuggifatica
cds	no	brontolone
qas	no	accattabrighe
dmc	yes	igannevole
ddp	yes	scemo
an	no	pattume
ddp	yes	ottusità
ps	yes	baccelletto
ddp	yes	cane
an	no	minchioneria
ps	yes	zoticone
qas	no	disordinato
ddp	yes	microcefalo
asf	no	fessaggine
rci	yes	sguaiato
ps	yes	boche
cds	no	superbo
cds	no	piedipiatti
an	no	idiozia
cds	no	imbecille
or	no	gay
dmc	yes	incapace
cds	no	barbone
ps	yes	furibondo
cds	no	marmotta
an	no	tignoso
asf	no	stupidità
an	no	volgarità
cds	no	rifiuti domestici
om	no	twink
svp	no	irritato
ddp	yes	scalzacane
asf	no	ritardare
rci	yes	villanzone
ddp	yes	mongoloide
is	yes	reprobo
cds	no	peccatrice
asf	no	boiata
pa	yes	popoli barbari
cds	no	schoolma'am
cds	no	baldanzoso
is	yes	scrooge
an	no	diddlysquat
ddp	yes	illetterato
cds	no	giuntatore
an	no	parsimonioso
ddp	yes	cretino
an	no	cattivo
asm	no	cazzo
svp	no	avara
cds	no	mediocrità
asf	no	minchione
cds	no	spazzatura
ps	yes	cangianti
dmc	yes	puzzore
an	no	boia
an	no	insensatamente
is	yes	galeotto
an	no	tonto
cds	no	bauscia
asm	no	derisore
svp	no	dilly-dallier
an	no	bradipo
svp	no	amore di sé
svp	no	sfaticato
asm	no	stupidità
an	no	ciarlone
is	yes	tignoso
dmc	yes	prevaricatore
an	no	grullo
dmc	yes	dio imbroglione
cds	no	età fascista
cds	no	folderol
an	no	birbone
rci	yes	terroni
cds	no	svegliatezza
svp	no	poltronaggine
cds	no	truffatore
is	yes	pitocco
svp	no	collerico
re	no	delinquente
cds	no	baro
cds	no	minuzioso
ddp	yes	farabolone
asf	no	sorca
an	no	ciurma
cds	no	impegnativo
pr	no	squillo
cds	no	mariolo
cds	no	immodestia
cds	no	cianciare
asm	no	sempliciotto
is	yes	accattone
dmc	yes	canaglia
asf	no	asino
dmc	yes	dillydallier
an	no	semplicione
om	no	cerchiobottismo
an	no	sgualdrina
ddp	yes	non sense
cds	no	volgo
asm	no	gocciolone
qas	no	mangiapane
svp	no	esclusivista
an	no	corbelleria
qas	no	zappaterra
dmc	yes	inutile
pr	no	prostituzione
qas	no	superficialità
an	no	scum borsa
re	no	estorsioni
ddp	yes	senza cervelli
an	no	stronzo
pr	no	guff
ps	yes	nigga
cds	no	maneggione
cds	no	rivoluzione
ddp	yes	inebetire
ddp	yes	ciuco
dmc	yes	ballista
cds	no	mela lucidatrice
qas	no	lagna
an	no	avvoltoio
cds	no	furfanteria
an	no	dirty dog
qas	no	miserevole
dmc	yes	girellone
cds	no	dweeb
ps	yes	mal educato
an	no	avarizia
cds	no	disonesto
cds	no	beghinaggio
asm	no	merlo
ddp	yes	becero
dmc	yes	miasma
or	no	budino di testa
re	no	boccaccia
an	no	passeggiatrice
cds	no	pauroso
svp	no	indolenza
dmc	yes	secondo rater
qas	no	freeloader
cds	no	ciurmaglia
cds	no	girandolone
cds	no	musone
an	no	persona gracile
asf	no	babbeo
rci	yes	zotico
an	no	bastarda
ps	yes	sprecone
an	no	donnaiolo
is	yes	barabba
cds	no	gradasso
dmc	yes	contastorie
qas	no	parasita
an	no	tirchieria
cds	no	ciuco
cds	no	spregevole
cds	no	asineria
om	no	culattone
cds	no	malizioso
or	no	semplicione
asm	no	fare l'amore
cds	no	perdigiorno
ddp	yes	chiacchierone
ddp	yes	asinità
svp	no	spilorceria
cds	no	pusillanime
ddp	yes	stronzo
an	no	paolino
cds	no	prosopopea
asm	no	morditore
ddf	yes	sudicio
ddp	yes	piazzaiolo
svp	no	aggressivo
asm	no	sciocchezza
svp	no	pelandrone
dmc	yes	fallace
asm	no	sbeffeggiatore
cds	no	line-shooter
ddp	yes	immaturo
an	no	plebaglia
svp	no	inutile
is	yes	panurgo
pr	no	hogwash
cds	no	impertinenza
ddp	yes	botcher
ddp	yes	pappalardo
svp	no	ostile
ps	yes	mestizo
pr	no	comare
pa	yes	piazzaiolo
an	no	poco generoso
cds	no	intrallazzatore
cds	no	finanziatore
asm	no	fare sesso
or	no	frescone
cds	no	slackers
asf	no	bietolone
dmc	yes	vagabondi
an	no	asinata
an	no	vigliacco
cds	no	accozzaglia
svp	no	buon a nulla
svp	no	esosità
ddp	yes	balordaggine
cds	no	saccentone
dmc	yes	brocco
cds	no	aggiratore
or	no	pillock
an	no	canaglia
svp	no	insaziabilità
asm	no	bestia
svp	no	pidocchioso
asm	no	tomfool
ddp	yes	boiata
cds	no	novellino
ps	yes	crucco
dmc	yes	acchiappamosche
pr	no	paracula
ddp	yes	persona ignorante
an	no	indugiatore
dmc	yes	fetido
an	no	cacasotto
cds	no	zelo eccessivo
asm	no	ironizzare
is	yes	lesinatore
ps	yes	sradicatore
cds	no	cultura delle bande
asm	no	minchionare
qas	no	genia
an	no	buona lana
ddp	yes	ciarlone
or	no	manutenzione
or	no	merlo
asf	no	strafalcione
cds	no	diavolino
ps	yes	scimunito
cds	no	tanghero
re	no	mafiosi
pr	no	servizi sessuali
ps	yes	meticci
ddp	yes	non so nulla
asm	no	pesce
cds	no	pataccaro
ddp	yes	changeling
cds	no	confusione di gente
an	no	cornuto
an	no	malandrino
cds	no	spaccamontagne
an	no	calabrone
pa	yes	screanzato
svp	no	sostenuto
or	no	gnocco
svp	no	sfaccendato
cds	no	sporcizia
svp	no	avarizia
cds	no	abbaruffio
qas	no	villano
cds	no	mediocre
asm	no	scemo
dmc	yes	indecente
qas	no	demenziale
an	no	brutale
cds	no	half-pint
pa	yes	villanzone
ddp	yes	spifferone
cds	no	lestofante
an	no	insipiente
cds	no	sneak thief
dmc	yes	brindellone
asf	no	dotto vaginale
cds	no	banditi
an	no	da bruto
dmc	yes	mollaccione
pr	no	bunkum
cds	no	sciocco
cds	no	falso
asf	no	castroneria
an	no	prostituzione omosessuale
an	no	stick-in-the-mud
svp	no	poltroniere
cds	no	abbattimento
dmc	yes	scalpellino
cds	no	sbruffone
an	no	pip-squeak
ps	yes	stupido
an	no	spilorcio
asm	no	rubare
an	no	floozie
cds	no	hellion
dmc	yes	tartufo
an	no	babbuino
cds	no	esigente
svp	no	fanatico
is	yes	villain
is	yes	commiserabile
an	no	balordaggine
cds	no	arruffapopoli
cds	no	pappone
cds	no	wheeler rivenditore
re	no	calunnia
asm	no	stolto
an	no	zooerastia
qas	no	alienato
cds	no	raggiratore
dmc	yes	gingillone
svp	no	grandigia
an	no	sfarfallone
svp	no	superbo
dmc	yes	zaffata
or	no	figa
an	no	prostituzione di strada
or	no	citrullo
cds	no	piazzaiolo
or	no	testa di merda
cds	no	rammollito
pr	no	adultera
cds	no	estrema ala destra
cds	no	invadente
cds	no	viltà
cds	no	banda
cds	no	abbaiatore
asf	no	pazzia
cds	no	presuntuoso
dmc	yes	mefitico
cds	no	dottrina del fascismo
qas	no	la rovina
dmc	yes	masnadiero
cds	no	furfante
cds	no	nano
asm	no	balordaggine
or	no	nicchio
cds	no	marmittone
cds	no	poltroniere
svp	no	garoso
is	yes	sfortunato
dmc	yes	abbindolatore
an	no	stolto
ddp	yes	priva di significato
ddp	yes	zooerastia
cds	no	mafia
dmc	yes	lazzarone
an	no	inetto
ddp	yes	stolto
ddp	yes	rimbambire
svp	no	vacuità
qas	no	chi semina discordia
dmc	yes	vigliacco
cds	no	tal dei tali
ps	yes	pollo
svp	no	presupponenza
ddp	yes	pollo
asm	no	cretino
cds	no	ebete
ps	yes	cretino
cds	no	bacchettoneria
svp	no	ignavia
cds	no	scemo
or	no	pasticciano
cds	no	spettatore
ps	yes	contadino
cds	no	groveller
cds	no	pendaglio da forca
cds	no	stolto
dmc	yes	poltrone
dmc	yes	commediante
cds	no	confusione
an	no	sguaiataggine
dmc	yes	rubacchiatore
cds	no	curioso
cds	no	Ùbris
an	no	mollaccione
qas	no	conservatore
or	no	rapa
ps	yes	maleducato
cds	no	conservatore
or	no	strano
cds	no	mangiafuoco
pr	no	signora del piacere
cds	no	vanagloria
svp	no	ingordo
or	no	ciciotta
qas	no	folle
om	no	codardo
cds	no	era fascista
an	no	grossaggine
ddp	yes	medicina ciarlatano
dmc	yes	dissoluto
dmc	yes	squallido
an	no	profittatore
asm	no	fesseria
an	no	sciacallo
dmc	yes	scostumato
dmc	yes	pseudo
ddp	yes	scalzacani
an	no	malfattore
pr	no	prostitute
cds	no	giochetto
cds	no	ottuso
cds	no	tappo
is	yes	tirchieria
asm	no	chi prende in giro
an	no	pidocchioso
cds	no	mingherlino
ddp	yes	schiappa
dmc	yes	transfuga
ps	yes	paonazzo
an	no	carogna
cds	no	sega
cds	no	lordura
ddp	yes	subnormale
cds	no	millantatore
ddp	yes	da bruto
dmc	yes	do-nothing
an	no	stoltamente
is	yes	migragnoso
asm	no	ottusità
svp	no	pigrizia
ddp	yes	vittima
cds	no	passatista
pr	no	sportivo donna
ddp	yes	insipiente
cds	no	egoista
cds	no	cattivo soggetto
is	yes	patetico
svp	no	epulone
asm	no	minchioneria
or	no	movimento omofilo
qas	no	oziare
cds	no	maffia
dmc	yes	sudicione
ddp	yes	svanitello
asm	no	motteggiatore
pr	no	strega
cds	no	gonfiaggine
pr	no	sciacquetta
ddp	yes	stupidità
cds	no	feccia
dmc	yes	cafone
cds	no	scalpellino
dmc	yes	abietto
dmc	yes	pilferer
pr	no	arpia
an	no	stupidamente
cds	no	gabbacristiani
or	no	blockhead
cds	no	ingannevole
cds	no	snob
asf	no	bacillo di döderlein
dmc	yes	debosciato
rci	yes	screanzato
an	no	blockhead
dmc	yes	infingardo
re	no	violentatore
pr	no	donna sciatta
ddp	yes	medicastro
dmc	yes	nano
re	no	estorsione
cds	no	allocco
an	no	soft touch
asm	no	castroneria
cds	no	dilettantismo
cds	no	trasformista
asm	no	pisellone
svp	no	orgoglioso
an	no	implacabilità
ddp	yes	fanciullone
cds	no	intrigante
cds	no	marmaglia e bobtail
ddf	yes	abietto
cds	no	know-it-all
svp	no	dispettoso
dmc	yes	trasandato
an	no	becco
cds	no	presuntuosità
dmc	yes	maiale
cds	no	paolino
cds	no	ardire
dmc	yes	terribile
ddp	yes	knucklehead
cds	no	fibber
ddp	yes	caduta ragazzo
dmc	yes	mascalzone
cds	no	ufficiale di polizia
asf	no	ingenuo
an	no	scorta maschile
pr	no	donna di facili costumi
svp	no	supponente
qas	no	fandonia
an	no	marmotta
qas	no	pasticciare
asm	no	chiavare
an	no	cavolata
asm	no	sega
cds	no	piagnucolone
dmc	yes	cattivo odore
svp	no	poltroniero
ddp	yes	zulù
an	no	mingherlino
svp	no	smanioso
svp	no	malvolere
cds	no	bandito
ps	yes	stolido
asf	no	microcefalo
ddp	yes	pinco
pr	no	john
an	no	insensato
or	no	vagina
ddp	yes	controsenso
re	no	malfattore
ps	yes	stolto
svp	no	furia
cds	no	caduta ragazzo
dmc	yes	fasullo
is	yes	poveraccio
asf	no	baggiano
pa	yes	ignoranza
asm	no	masturbazione
cds	no	moralizzare
qas	no	fuori di sé
dmc	yes	villano
asf	no	ultimate testa di martello
dmc	yes	gabbatore
cds	no	spavaldo
ddp	yes	idiota
cds	no	vandeano
an	no	banalità
dmc	yes	rude
svp	no	irascibile
or	no	scioccone
ps	yes	selvaggio
qas	no	sentimentale
svp	no	oltracotanza
svp	no	fiero
cds	no	scagnozzi
an	no	barbone
dmc	yes	chawbacon
ddp	yes	testa di legno
re	no	burrascoso
dmc	yes	barbone
cds	no	sfarfallone
re	no	antagonista
qas	no	folla eterogenea
re	no	mafioso
asf	no	citrullo
asm	no	babbuino
om	no	invertito
dmc	yes	inurbano
ps	yes	imbecille
re	no	date rape
svp	no	tracotanza
cds	no	gang di strada
dmc	yes	aggiratore
qas	no	robaccia
pa	yes	sgarbo
qas	no	scalzacani
dmc	yes	vendifrottole
or	no	sempliciotto
cds	no	campagnolo
cds	no	scalzacane
dmc	yes	zulù
cds	no	frottola
cds	no	grullo
ps	yes	mezzo sangue
cds	no	bugiardello
dmc	yes	nefando
re	no	birbante
asm	no	babbeo
cds	no	mestatore
dmc	yes	contaballe
dmc	yes	feroce
cds	no	patsy
qas	no	bumbler
an	no	bambinone
qas	no	lordura
svp	no	risentito
svp	no	presuntuosità
cds	no	povero pesce
cds	no	ufficiale
svp	no	fuggifatiche
cds	no	pressappochismo
an	no	viziosità
cds	no	fascisti
svp	no	altezzoso
ddp	yes	citrullaggine
dmc	yes	ciabattone
ddp	yes	pattume
dmc	yes	ciondolone
an	no	zoccola
an	no	arpagone
asf	no	stolto
cds	no	pedante
pr	no	scansione marciapiede
ddf	yes	disprezzabile
an	no	mamalucco
qas	no	sconclusionato
asm	no	masturbandosi
dmc	yes	cortigiano
an	no	rentboy
an	no	vamper
an	no	baccellone
dmc	yes	maleodorante
ddp	yes	mal parlante
an	no	predone
an	no	capro espiatorio
asf	no	fesseria
an	no	nana
dmc	yes	porco
pr	no	zoccola
ddf	yes	omino
cds	no	demagogia
svp	no	fatuo
svp	no	poco generoso
ddp	yes	sfarfallone
cds	no	casinista
asf	no	semplicione
re	no	manigoldo
an	no	vipera
qas	no	assillare
dmc	yes	grifter
cds	no	fola
pr	no	stronzata
an	no	lumacone
ddp	yes	ciarlatano
om	no	infelice
asm	no	jeerer
ddp	yes	bietolone
qas	no	sbafatore
asm	no	salame
ps	yes	popoli barbari
dmc	yes	selvaggio
svp	no	altero
dmc	yes	spilorcio
ddp	yes	rimbambinire
an	no	maiale
ddp	yes	corbelleria
asf	no	coglionaggine
cds	no	briganti
pa	yes	buzzurro
dmc	yes	michelaccio
qas	no	cafone
pr	no	strada ragazza
an	no	tirchio
dmc	yes	lestofante
dmc	yes	marmittone
or	no	esigente
dmc	yes	falsificato
dmc	yes	afrore
ddp	yes	pasticciano
asf	no	mammalucco
cds	no	bricconeria
svp	no	libidinoso
ddp	yes	bisbetico
ddp	yes	stupidata
cds	no	arte
svp	no	svogliatezza
svp	no	taccagno
ddp	yes	buzzurro
svp	no	girellone
svp	no	arroganza
dmc	yes	impostore
qas	no	commiserabile
or	no	fregna
rci	yes	zoticone
asm	no	grullo
cds	no	improntitudine
asf	no	sempliciotto
ps	yes	nigra
cds	no	piscina hustling
asm	no	prendersi gioco
cds	no	agente di polizia
ps	yes	credulone
ps	yes	demolitore
svp	no	mangione
ddp	yes	rimbecillito
is	yes	di idee ristrette
an	no	castrone
svp	no	altezzosità
dmc	yes	impiastratore
dmc	yes	disdicevole
cds	no	carogna
asf	no	castronaggine
cds	no	magliaro
rci	yes	bifolco
an	no	sanguisuga
svp	no	orgogliosità
asm	no	coglionaggine
cds	no	ciondolone
cds	no	guaio
or	no	omosex
cds	no	tricker
dmc	yes	dondolone
dmc	yes	scabroso
asf	no	pollastro
is	yes	povero diavolo
cds	no	ladruncolo
or	no	zuccone
cds	no	paccotiglia
ddp	yes	castrone
asf	no	allocco
dmc	yes	sfortunato
cds	no	bigotto
svp	no	voracità
qas	no	panzana
dmc	yes	libertino
ddp	yes	pesce
ddf	yes	brutto
qas	no	pastrocchiare
svp	no	do-nothing
an	no	devastatore
pa	yes	burino
dmc	yes	battipetto
cds	no	castrone
svp	no	dissoluto
cds	no	sussiego
cds	no	git
cds	no	ganga
an	no	marmaglia e bobtail
cds	no	discolo
an	no	credulone
ps	yes	tonto
cds	no	hýbris
cds	no	struscione
cds	no	vagabondo
dmc	yes	fuggifatiche
re	no	fellone
dmc	yes	inganno
dmc	yes	disprezzabile
cds	no	fetente
cds	no	mondezza
an	no	testa di merda
an	no	pomicione
asm	no	nookie
re	no	figuro
dmc	yes	puzzolente
cds	no	poltrone
cds	no	prestito
cds	no	disprezzabile
an	no	prickteaser
cds	no	gnocco
an	no	porcheria
qas	no	ben pensante
pa	yes	villano
asf	no	balordo
is	yes	taccagno
dmc	yes	delinquente minorenne
svp	no	furore
an	no	rimbecillito
qas	no	plebe
dmc	yes	buono a nulla
pa	yes	cafoneria
an	no	ignorante
cds	no	superbia
dmc	yes	sparagnino
re	no	mafia italiana
cds	no	poltroniero
dmc	yes	half-pint
ps	yes	screanzato
dmc	yes	iniquità
cds	no	rapinatore
an	no	zanni
cds	no	satiriasi
an	no	bandito
or	no	allocco
an	no	castroneria
pr	no	rentboy
asm	no	pezzo di coda
qas	no	panzanata
or	no	sorca
asf	no	cretino
dmc	yes	male avezzo
re	no	tipaccio
cds	no	torma
ps	yes	microcefalo
an	no	cane
ddp	yes	villano
cds	no	fesseria
asm	no	bambocciata
cds	no	folla
asf	no	idiozia
is	yes	manigoldo
cds	no	figlio di una cagna
an	no	avaro
qas	no	vagabondo
dmc	yes	vitellone
cds	no	strozzina
qas	no	arronzare
ddp	yes	spazzatura
cds	no	dipendenza sessuale
pr	no	baiadera
ps	yes	cafona
cds	no	sguaiato
ddp	yes	incitrullirsi
cds	no	turba
ddp	yes	ocaggine
om	no	queer
an	no	pollastro
cds	no	citrullo
cds	no	splashiness
om	no	paraculismo
asm	no	mammalucco
svp	no	spilorcio
asf	no	bonaccione
ps	yes	zingaro
re	no	farabutto
cds	no	malizia criminale
dmc	yes	mediocrità
cds	no	rifiutare
an	no	stupidaggine
cds	no	ciarlare
cds	no	ruffiana
cds	no	dirty dog
an	no	micragnoso
asf	no	somaro
svp	no	pezzente
an	no	predatore
cds	no	rifiuti solidi urbani
dmc	yes	schiappa
ps	yes	assassino
ps	yes	gonzo
cds	no	omiciattolo
ddp	yes	fessaggine
ps	yes	castrone
ddp	yes	pecorume
or	no	pappalardo
an	no	serpe
an	no	bagascia
ddp	yes	barbarie
dmc	yes	giuda
dmc	yes	mistificatore
om	no	diverso
or	no	persona stupida
is	yes	mascalzone
ddp	yes	minchionaggine
re	no	disgraziato
asm	no	cretinata
svp	no	accanimento
dmc	yes	incivile
cds	no	looker-on
an	no	brutalità
ddp	yes	figlio di puttana
cds	no	rookie
ddp	yes	gnocco
pa	yes	selvaggio
an	no	battona
cds	no	testa di cazzo
cds	no	imbecillaggine
cds	no	secchia
qas	no	crocifiggere
cds	no	rifiuti
svp	no	acrimonioso
rci	yes	maleducato
dmc	yes	pellaccia
qas	no	imbianchino
ddp	yes	burino
dmc	yes	tirchio
cds	no	barbari
cds	no	battipetto
svp	no	vuotezza
an	no	ciuco
pr	no	falena
is	yes	mendico
cds	no	male-making
cds	no	gaglioffo
an	no	rammollito
an	no	fellone
asf	no	folderol
dmc	yes	guastamestieri
dmc	yes	reietto
dmc	yes	immoralità
an	no	posapiano
cds	no	scioperato
cds	no	millanteria
ps	yes	barbaro
re	no	cosa nostra
pa	yes	marrano
cds	no	faticone
ddp	yes	baggiano
dmc	yes	gretto
asf	no	ritardato
cds	no	rifiuti urbani
asf	no	lunkhead
dmc	yes	ipocrita
ps	yes	furioso
qas	no	diilettantesco
svp	no	taccagneria
is	yes	questuante
cds	no	ibris
dmc	yes	pseudo-
cds	no	regime fascista
dmc	yes	furbone
an	no	briccone
dmc	yes	voltagabbana
pr	no	scorie
an	no	strada ragazza
an	no	stupidata
cds	no	bulinatore
re	no	atto di terrorismo
an	no	lumaca
ddp	yes	a vanvera
or	no	povero pesce
an	no	citrullaggine
pr	no	sporcacciona
qas	no	bugia innocente
is	yes	mendicante
cds	no	monnezza
qas	no	acciabattare
svp	no	sufficiente
cds	no	bugia bianca
qas	no	arruffamatasse
cds	no	disgraziato
or	no	broccolo
cds	no	fanciullone
an	no	ebete
dmc	yes	peccaminoso
dmc	yes	leppo
an	no	cattivo tragico
re	no	canaglia
svp	no	infingardo
an	no	pappalardo
an	no	donna chaser
dmc	yes	cattivo
dmc	yes	fellone
qas	no	teppa
cds	no	esclusivista
dmc	yes	sguaiato
an	no	birbantello
cds	no	moaner
asf	no	tontolone
cds	no	insistenza
dmc	yes	truffaldino
an	no	pusillanime
svp	no	michelaccio
cds	no	malavita
an	no	mondezza
ps	yes	mezzosangue
ddp	yes	piombone
ddp	yes	testa di martello
ddp	yes	linguacciuto
an	no	taccagneria
ps	yes	mamalucco
dmc	yes	apostata
cds	no	mellifluo
cds	no	lazzarone
or	no	semplice
an	no	diddly-shit
dmc	yes	buona lana
ddp	yes	doofus
svp	no	spacconaggine
cds	no	alterigia
cds	no	imbrattafogli
an	no	strafalcione
an	no	bestiale
or	no	conno
dmc	yes	fannullone
asf	no	cangianti
asf	no	cunnu
cds	no	demagogismo
ddp	yes	disordinato
cds	no	nerds
re	no	mafia siciliana
ddp	yes	screanzato
cds	no	birro
cds	no	pericolo pubblico
asm	no	nooky
cds	no	gendarme
is	yes	sparagnino
dmc	yes	baro
cds	no	pigro
asm	no	fessacchiotto
cds	no	santocchieria
dmc	yes	temporeggiatore
cds	no	furbacchione
ddp	yes	zimbello
asf	no	patsy
svp	no	bile
dmc	yes	brutto
cds	no	scribacchino
cds	no	marrano
qas	no	baggianata
svp	no	baciapile
cds	no	scalzacani
dmc	yes	fetente
dmc	yes	reprobo
asf	no	ritardato mentale
cds	no	amor proprio
dmc	yes	dissimulatore
cds	no	broccolo
ps	yes	fregnone
an	no	testone
cds	no	mussiness
dmc	yes	pestilenziale
dmc	yes	raccontafavole
or	no	omofilo
cds	no	gabbacompagno
svp	no	superbia
cds	no	scortese
cds	no	storiella
om	no	portatore di handicap
ddp	yes	scempiaggine
dmc	yes	imbroglione
svp	no	iattanza
dmc	yes	scalzacani
ps	yes	barbarie
asm	no	imbecille
asm	no	stolido
svp	no	tirato
dmc	yes	fetore
ps	yes	rimbecillito
dmc	yes	turlupinare
cds	no	lenone
cds	no	segaiolo
dmc	yes	poltroniero
svp	no	invidioso
ddp	yes	buffone
cds	no	retrogrado
ps	yes	krauthead
dmc	yes	malandrino
asf	no	baccalà
ps	yes	marrano
ddp	yes	saphead
ddp	yes	castronaggine
an	no	vacca
cds	no	cheekiness
qas	no	storia
ps	yes	pesce
re	no	maligner
cds	no	rodomonte
asm	no	twirp
pr	no	ragazzi di affitto
ddp	yes	tontolone
dmc	yes	ingannare
qas	no	marmaglia e bobtail
cds	no	omuncolo
asm	no	avvitare
pa	yes	zoticone
cds	no	hubris
cds	no	strafottenza
cds	no	nero
ddp	yes	testardo
cds	no	bande giovanili
dmc	yes	esclusivista
cds	no	pivello
svp	no	prepotenza
or	no	impegnativo
cds	no	moraleggiare
cds	no	untuoso
cds	no	giamburrasca
an	no	lesinatore
cds	no	briccone
ddp	yes	spriggan
svp	no	scioperataggine
cds	no	procacità
pr	no	baldracca
re	no	violatore
or	no	stupe
dmc	yes	mendacità
svp	no	parsimonioso
asf	no	cangiante
is	yes	accattapane
cds	no	budino di testa
asm	no	frodare
or	no	scemo
cds	no	ballista
re	no	furioso
cds	no	vitellone
re	no	gruppo terroristico
dmc	yes	ristretto
cds	no	pusillanimità
cds	no	saputello
is	yes	taccagneria
svp	no	burbanza
qas	no	cadger
cds	no	immondezza
dmc	yes	turlupinatore
dmc	yes	zotico
asf	no	scimunito
asf	no	potta
cds	no	saltimbanco
cds	no	svanitello
cds	no	paccottiglia
ddp	yes	inconsapevolezza
svp	no	bisbetico
ddp	yes	nonsense
cds	no	birbanteria
cds	no	protervia
om	no	omosessuale
dmc	yes	bumbler
cds	no	palazzinari
asf	no	merlo
svp	no	bramoso
ddp	yes	candido
ddp	yes	figlio di una cagna
dmc	yes	diseducato
ddf	yes	riprovevole
dmc	yes	panurgo
an	no	ragazzi di affitto
or	no	bue
cds	no	popoli barbari
dmc	yes	blackleg
svp	no	livido
svp	no	sicumera
svp	no	pappone
asm	no	sbeffare
or	no	ciocco
om	no	checca
ddp	yes	paolino
ddp	yes	rinfanciullire
dmc	yes	barbari
ddp	yes	spia
rci	yes	barbarie
cds	no	indiscreto
rci	yes	zulù
ddp	yes	follia
re	no	cosanostra
an	no	ingenuo
cds	no	dipendenza dal sesso
re	no	sciagurato
dmc	yes	spregiudicato
om	no	ragazzo
cds	no	birboneria
qas	no	barbari
cds	no	riprovare
an	no	furbone
ddf	yes	half-pint
re	no	reprobo
cds	no	despotismo
asf	no	soft touch
an	no	imbranato
qas	no	plebaglia
svp	no	abulico
dmc	yes	indolente
svp	no	gonfio
an	no	squillo
om	no	omosex
cds	no	gabbamondo
ddp	yes	ebete
an	no	pacione
asm	no	pollastro
an	no	poltrone
dmc	yes	gingillino
cds	no	bacchettone
pa	yes	sguaiato
an	no	bischero
svp	no	collera
cds	no	pavido
dmc	yes	ignorante
cds	no	insolenza
asf	no	fessacchiotto
dmc	yes	zappaterra
asm	no	credulità
cds	no	strafalcione
svp	no	arlotto
re	no	buonalana
an	no	manigoldo
qas	no	attaccabrighe
asf	no	fanciullone
qas	no	dilettantistico
ddp	yes	inabile
ddp	yes	bestia
ps	yes	uccellaccio
is	yes	tirato
an	no	bestialità
cds	no	insegnante
cds	no	malandrino
ddp	yes	persona incompetente
cds	no	rifiuto metallico
ddp	yes	fregnone
asm	no	nerchia
cds	no	altezzoso
pr	no	call girl
qas	no	rovinare
cds	no	sputasentenze
cds	no	egocentrico
ddp	yes	nonsensicality
qas	no	selvaggio
an	no	furbacchione
cds	no	fumbler
qas	no	screanzato
dmc	yes	sventurato
dmc	yes	perdigiorno
svp	no	scrooge
cds	no	venale
ddp	yes	melensaggine
or	no	passera
cds	no	gancio
qas	no	favola
asm	no	arnese
qas	no	frottola
re	no	buono a nulla
or	no	pedante
ddp	yes	comare
qas	no	frenetico
cds	no	lecchino
dmc	yes	pigrone
rci	yes	polentone
cds	no	prossenetismo
ddp	yes	incolto
dmc	yes	giravolta
ps	yes	meticciato
qas	no	sdolcinato
svp	no	futilità
dmc	yes	smanierato
cds	no	pezzo di merda
rci	yes	selvaggio
cds	no	agitatore
or	no	pacioccone
cds	no	ostentazione
asf	no	pippione
dmc	yes	contafrottole
ddp	yes	istupidirsi
re	no	villain
cds	no	fascista
cds	no	cantambanco
re	no	impetuoso
asf	no	sproposito
om	no	strano
pr	no	zambraccola
dmc	yes	cane
cds	no	sacripante
ddf	yes	basso
svp	no	perdigiorno
asf	no	sciocchezza
ps	yes	buzzurro
dmc	yes	pigro
cds	no	pattume
cds	no	combriccola
svp	no	buono a nulla bene
cds	no	astuzia
ddp	yes	confidente
qas	no	marmaglia
qas	no	bugia bianca
ps	yes	ebete
ps	yes	doofus
svp	no	fanatismo
cds	no	questurino
qas	no	girovago
dmc	yes	finto
an	no	imperversare
an	no	buffone
an	no	imbecille
ps	yes	kraut
re	no	violenza carnale
svp	no	alterigia
qas	no	invenzione
cds	no	reazionario
ddp	yes	cretinata
cds	no	bamboccio
qas	no	imbrattatele
cds	no	sex addiction
an	no	bue
dmc	yes	basso
ddp	yes	vaniloquio
ddp	yes	beota
an	no	pitocco
cds	no	ciabattone
cds	no	mollusco
re	no	miserabile
ddp	yes	zappaterra
dmc	yes	maleducato
asf	no	scemenza
cds	no	strozzino
is	yes	brigante
an	no	rusticaggine
re	no	galeotto
dmc	yes	vile
re	no	criminalità politica
dmc	yes	sito
asf	no	muttonhead
dmc	yes	malvagità
cds	no	faciloneria
ps	yes	nero
ddp	yes	uccellaccio
svp	no	albagia
ddp	yes	insulsaggine
is	yes	ribaldo
cds	no	infingardo
svp	no	insolenza
ps	yes	cangiante
ps	yes	sanguemisto
cds	no	arcifanfano
cds	no	villain
svp	no	niggardness
an	no	sciacquetta
qas	no	benpensante
asm	no	coglioneria
or	no	tonto
cds	no	accademico
svp	no	tirchio
asf	no	pinco
svp	no	ciondolone
ddp	yes	baggianata
an	no	bricconcello
ddp	yes	mamalucco
ddp	yes	rapa
ddp	yes	cialtrone
dmc	yes	villania
ddp	yes	barbari
ddp	yes	imbecillaggine
dmc	yes	marrano
dmc	yes	furbacchione
cds	no	villanzone
an	no	il cattivo
an	no	mentecatto
asm	no	ciola
cds	no	masturbandosi
cds	no	male avezzo
asm	no	trombare
dmc	yes	zoticone
cds	no	michelaccio
cds	no	biricchino
om	no	poof
cds	no	armeggione
cds	no	sobillatore
an	no	buonalana
ps	yes	spriggan
cds	no	bifolco
cds	no	cascami
ddp	yes	ultimate testa di martello
an	no	incolto
dmc	yes	malefico
asm	no	pinco
qas	no	mattone
dmc	yes	dissipatore
dmc	yes	cencioso
ps	yes	pinco
is	yes	meschino
dmc	yes	beghino
ddf	yes	nanus
pa	yes	barbaricum
dmc	yes	indegno
cds	no	monello
ddp	yes	soft touch
an	no	masnadiero
cds	no	scorretto
pa	yes	barbari
or	no	castrone
ddp	yes	viziosità
cds	no	mafiosa
or	no	cunnu
ddp	yes	asineria
svp	no	rabbia
dmc	yes	disumano
cds	no	masnada
cds	no	malavvezzo
cds	no	tronfiezza
rci	yes	becero
ddp	yes	pazzia
is	yes	il cattivo
svp	no	sostenutezza
ps	yes	mentecatto
asm	no	flouter
cds	no	pollastro
dmc	yes	maleducazione
an	no	insensatezza
svp	no	dispotismo
cds	no	usura
cds	no	imbonitore
cds	no	saltambanco
qas	no	litigone
ddp	yes	baccellone
dmc	yes	rinnegato
cds	no	violenza delle bande
ps	yes	allocco
qas	no	combinaguai
ddp	yes	capro espiatorio
dmc	yes	malevolo
or	no	muttonhead
re	no	stupratore
an	no	pauroso
pr	no	troia
asm	no	imbecillità
pr	no	sgualdrinetta
rci	yes	cafona
dmc	yes	avvilirsi
or	no	testa di martello
cds	no	povero diavolo
cds	no	pennaiolo
cds	no	wuss
ddp	yes	hokum
cds	no	folla eterogenea
an	no	merlotto
an	no	minchione
pr	no	donnaccia
dmc	yes	nefasto
asf	no	bambola
dmc	yes	malvagio
or	no	poove
ddp	yes	bumbler
ps	yes	meticcio
qas	no	arruffare
qas	no	istigatore
cds	no	scellerato
cds	no	furberia
an	no	sciocchezza
dmc	yes	burino
dmc	yes	scammer
rci	yes	buzzurro
an	no	pappagallo
an	no	reprobo
asf	no	pupa
cds	no	miserabile
cds	no	asino
pa	yes	sgarbato
cds	no	cattivo
cds	no	tonto
dmc	yes	perditempo
cds	no	borioso
pr	no	sozzona
ps	yes	sciocco
cds	no	prestatore
cds	no	fandonia
dmc	yes	banderuola
or	no	ignorante
qas	no	faciloneria
an	no	balordo
cds	no	pasticciano
dmc	yes	rovinoso
dmc	yes	ignobile
an	no	parasita
asm	no	sfottere
ps	yes	bifolco
cds	no	clan
asm	no	cazzeggiare
cds	no	masturbazione
svp	no	gourmandizer
qas	no	noia
asf	no	testa di martello
dmc	yes	pelagatti
an	no	sproposito
rci	yes	sgarbato
cds	no	altezzosità
cds	no	persona gracile
svp	no	sussiegoso
rci	yes	incivile
cds	no	reprobo
asm	no	sbertucciare
dmc	yes	lazzerone
cds	no	ladrone
cds	no	asinità
qas	no	rifiutare
cds	no	birbone
cds	no	mascalzone
cds	no	incapace
asm	no	stoltezza
cds	no	presunzione
cds	no	furbizia
or	no	gnocca
qas	no	crocefiggere
dmc	yes	sneak thief
asf	no	grullo
svp	no	inerzia
cds	no	scioccone
ddp	yes	incompetente
ddp	yes	mammalucco
or	no	bamboccio
or	no	topa
cds	no	pippione
pa	yes	cafonaggine
is	yes	parsimonioso
an	no	lunkhead
an	no	baggiano
re	no	birbantello
an	no	figuro
asm	no	scemenza
pr	no	sciattona
ddp	yes	bamboccio
cds	no	spaccone
or	no	svanitello
svp	no	scansafatiche
ddp	yes	cavolata
dmc	yes	ranocchio
cds	no	pettegolo
dmc	yes	ladrone
om	no	omoerotico
or	no	ultimate testa di martello
asf	no	ciuco
cds	no	credulone
ddp	yes	malalingua
cds	no	bande
qas	no	menzogna
dmc	yes	perfido
qas	no	barbaro
cds	no	sciagurato
ps	yes	barbari
svp	no	irritabile
ddf	yes	moscherino
dmc	yes	crudele
an	no	ciccione
pr	no	donna di malaffare
pr	no	passeggiatrice
cds	no	barbaro
or	no	asino
cds	no	secondo rater
ddp	yes	rumourmonger
cds	no	marchingegno
an	no	persona ignorante
dmc	yes	menzognero
cds	no	hybris
ddp	yes	ignaro
dmc	yes	gancio
asm	no	pazzia
cds	no	rompicapo
cds	no	scappatoia
ps	yes	annientatore
qas	no	bifolco
asf	no	spazzatura
cds	no	bragger
cds	no	barabba
cds	no	bietolone
cds	no	magnaccia
cds	no	nerd
cds	no	secondino
an	no	scrofa
an	no	mascalzone
dmc	yes	buon a nulla
svp	no	vano
an	no	diddly
dmc	yes	fibber
cds	no	faccendiere
ps	yes	zappaterra
dmc	yes	migragnoso
dmc	yes	spregevole
ddp	yes	informatore
cds	no	vigliaccheria
qas	no	imbrogliare
an	no	bestia
cds	no	semplicione
cds	no	arrogante
ddp	yes	prater
cds	no	panzana
cds	no	porcheria
asf	no	immondizia
cds	no	inurbano
dmc	yes	birichino
asm	no	baccalà
or	no	queer
om	no	handicappato
cds	no	mugugnone
cds	no	palla
is	yes	accattatozzi
svp	no	lunatico
ddp	yes	pezzo di merda
pa	yes	accademico
cds	no	svogliato
dmc	yes	villain
cds	no	plebaglia
svp	no	tracotante
cds	no	curiosare
dmc	yes	puzzone
cds	no	ribaldo
rci	yes	barbaricum
or	no	patata
is	yes	paltone
svp	no	gonfiaggine
cds	no	birbantaggine
re	no	diffamatore
dmc	yes	rakehell
svp	no	accidia
svp	no	poltroneria
svp	no	hauteur
an	no	civetta
dmc	yes	bricconcello
cds	no	malfattore
ddp	yes	maleducato
ps	yes	becero
qas	no	forsennato
dmc	yes	perverso
dmc	yes	bifolco
cds	no	ciarpame
or	no	pacione
qas	no	fola
ddp	yes	fesso
cds	no	robaccia
dmc	yes	poveraccio
dmc	yes	mediocre
or	no	minuzioso
or	no	checca
svp	no	sfrontatezza
svp	no	pitocco
cds	no	ciarlone
ddp	yes	maldicente
cds	no	reggicoda
or	no	sticchio
cds	no	hypersexual
qas	no	senza fissa dimora
dmc	yes	puzzolento
pr	no	prostituzione omosessuale
re	no	atto terroristico
dmc	yes	trafficante
dmc	yes	buono a nulla bene
cds	no	buffone
svp	no	imboscato
ddp	yes	somaro
qas	no	pazzo
dmc	yes	figuro
pr	no	prostituzione omosessuale maschile
dmc	yes	mendace
qas	no	pressappochismo
cds	no	popolazione
ps	yes	sangue misto
cds	no	teppaglia
asm	no	patsy
dmc	yes	hobo
svp	no	baldanzoso
cds	no	linguacciuto
cds	no	mucchio
ddp	yes	zuccone
dmc	yes	pitocco
an	no	taccagno
asm	no	beffare
re	no	briccone
an	no	accidioso
re	no	panurgo
asf	no	fesso
cds	no	fariseo
cds	no	trafficone
ddp	yes	inetto
cds	no	altura
ddp	yes	tonto
cds	no	truccone
cds	no	cut-up
qas	no	sguaiato
svp	no	dallier
dmc	yes	galeotto
cds	no	brindellone
dmc	yes	meschino
ddp	yes	medico empirico
cds	no	impiccione
cds	no	bravazzo
cds	no	protettore
ddp	yes	baccelletto
ddp	yes	demenza
ps	yes	sgarbato
asf	no	pisellone
an	no	puttana
cds	no	spaccamonti
svp	no	golosone
svp	no	petecchia
cds	no	moltitudine
cds	no	strozzini
an	no	tal dei tali
cds	no	coglione
svp	no	goloso
cds	no	fregarolo
dmc	yes	sgarberia
asm	no	pecorume
ps	yes	darky
qas	no	falsità
cds	no	fascismo italiano
dmc	yes	barbaro
dmc	yes	bugiardello
cds	no	arcadore
dmc	yes	scortesia
cds	no	diavoletto
svp	no	perditempo
cds	no	svaporato
asf	no	ignorante
dmc	yes	furfante
cds	no	masnadiero
pr	no	bastarda
cds	no	semplice
svp	no	presunzione
dmc	yes	becero
cds	no	sputasenno
an	no	git
asf	no	changeling
cds	no	pesce
qas	no	imbrattatore
cds	no	mentecatto
asm	no	pollo
cds	no	buontempone
an	no	frescone
cds	no	sentenziare
an	no	boiata
svp	no	gingillone
an	no	asino
cds	no	forcaiolo
cds	no	subdolo
an	no	fifone
ps	yes	minchione
ddp	yes	persona stupida
ps	yes	pollastro
cds	no	tossicodipendente
asf	no	ciarpame
ps	yes	vandalo
cds	no	imbranato
cds	no	diseducato
cds	no	bandolero
ddp	yes	bruto
ddp	yes	twirp
cds	no	cane
ps	yes	it
svp	no	mollaccione
cds	no	fiumana
asm	no	irrisore
an	no	tipaccio
asm	no	chiavata
cds	no	parabolano
ddp	yes	budino di testa
qas	no	botcher
dmc	yes	lezzo
cds	no	vile
ddp	yes	pastricciano
re	no	antiterrorismo
qas	no	confusionario
an	no	stolido
cds	no	perditempo
an	no	infuriarsi
dmc	yes	trappolone
ddp	yes	ottuso
asf	no	imbecillaggine
an	no	ultimate testa di martello
cds	no	usuraia
cds	no	pandar
qas	no	mangiatore a sbafo
svp	no	poltrone
dmc	yes	mentitore
ddp	yes	dissennato
dmc	yes	persona cattiva
dmc	yes	sporcaccione
dmc	yes	ammorbamento
cds	no	secchione
ps	yes	scioccone
ddp	yes	brutalità
dmc	yes	scapestrato
cds	no	begolardo
cds	no	opportunista
ddp	yes	infantile
svp	no	fannullone
om	no	paraculo
ddp	yes	merlotto
dmc	yes	omiciattolo
dmc	yes	piazzaiolo
svp	no	vorace
or	no	fesso
asm	no	cavolata
asf	no	vaginale
dmc	yes	popoli barbari
dmc	yes	scelleratezza
an	no	mignotta
cds	no	peccatore
dmc	yes	poco generoso
dmc	yes	poltroniere
rci	yes	villano
or	no	sciocco
re	no	buona lana
asm	no	minchione
cds	no	marioleria
dmc	yes	effluvio
cds	no	ybris
is	yes	gretto
cds	no	legittimista
ddp	yes	scimunito
pa	yes	zotico
qas	no	balla
cds	no	sostenutezza
dmc	yes	foetor
cds	no	canagliata
asm	no	berteggiare
re	no	rapinatore
qas	no	becero
cds	no	zappaterra
is	yes	esosità
ddp	yes	fessacchiotto
asm	no	accoppiarsi
or	no	ebete
asf	no	pattume
dmc	yes	boia
re	no	ricatto
asf	no	ciocco
ddp	yes	incivile
ddp	yes	delatore
cds	no	cacasenno
dmc	yes	cagliostro
cds	no	rottami di ferro
cds	no	spacciare
an	no	saphead
an	no	pesce cane
cds	no	boria
svp	no	immodestia
rci	yes	terrone
dmc	yes	truffatore
cds	no	pomposità
cds	no	deficiente
cds	no	mafia italiana
qas	no	arruffone
an	no	pigrone
dmc	yes	sciagurato
dmc	yes	libertinaggio
or	no	fica
or	no	knucklehead
qas	no	guastamestieri
ps	yes	mongoloide
dmc	yes	masnadiere
cds	no	quidnunc
pr	no	meretricio
an	no	gonna chaser
asm	no	asinata
cds	no	pacioccone
ddp	yes	grullaggine
an	no	aspide
svp	no	gorger
svp	no	tightfistedness
an	no	omino
cds	no	ignorante
cds	no	blackleg
cds	no	ubris
qas	no	feccia
svp	no	despotismo
asm	no	pippa
an	no	pezzente
ddp	yes	imbecille
cds	no	problema
cds	no	severo
ddp	yes	barbaricum
qas	no	uomo-d'ordine
cds	no	destrorso
ps	yes	nigger
ddp	yes	pillock
asm	no	idiota
an	no	zuccone
asm	no	ciolla
dmc	yes	apatico
or	no	rimbambito
cds	no	ozioso
an	no	gentaglia
cds	no	falsità
cds	no	delinquente minorenne
asf	no	pollo
svp	no	dillydallier
asm	no	sproposito
an	no	bamboccio
dmc	yes	ingannevole
